Two-drug combination example using BLRM Trial — example-combo2_trial • OncoBayes2
…
# summarize inference at specified dose levels
summary(combo2_trial_start, "dose_prediction")
#> # A tibble: 42 × 14
#>    group_id drug_A drug_B dose_id stratum_id   mean     sd   `2.5%`   `50%`
#>    <fct>     <dbl>  <dbl>   <int> <fct>       <dbl>  <dbl>    <dbl>   <dbl>
#>  1 trial_A     3        0       1 all        0.0142 0.0138 0.000137 0.00842
#>  2 trial_A     4.5      0       2 all        0.0522 0.0379 0.00545  0.0498 
#>  3 trial_A     6        0       3 all        0.144  0.0903 0.0652   0.0982 
#>  4 trial_A     8        0       4 all        0.373  0.202  0.141    0.380  
#>  5 IIT         0      400       5 all        0.0445 0.0727 0.000623 0.00830
#>  6 IIT         0      600       6 all        0.0641 0.0925 0.00287  0.0183 
#>  7 IIT         0      800       7 all        0.0869 0.107  0.00821  0.0366 
#>  8 IIT         3        0       8 all        0.0212 0.0269 0.000382 0.0136 
#>  9 IIT         3      400       9 all        0.0728 0.112  0.00518  0.0318 
#> 10 IIT         3      600      10 all        0.0967 0.142  0.00701  0.0407 
#> # ℹ 32 more rows
#> # ℹ 5 more variables: `97.5%` <dbl>, prob_underdose <dbl>, prob_target <dbl>,
#> #   prob_overdose <dbl>, ewoc_ok <lgl>
…
summary(combo2_trial, "data") # cohort_time is tracked
#> # A tibble: 27 × 8
#>    group_id drug_A drug_B num_patients num_toxicities cohort_time stratum_id
#>    <fct>     <dbl>  <dbl>        <dbl>          <dbl>       <dbl> <fct>     
#>  1 trial_A     3      0              3              0           0 all       
#>  2 trial_A     4.5    0              3              0           0 all       
#>  3 trial_A     6      0              6              0           0 all       
#>  4 trial_A     8      0              3              2           0 all       
#>  5 trial_B     0     33.3            3              0           0 all       
#>  6 trial_B     0     50              3              0           0 all       
#>  7 trial_B     0    100              4              0           0 all       
#>  8 trial_B     0    200              9              0           0 all       
#>  9 trial_B     0    400             15              0           0 all       
#> 10 trial_B     0    800             20              2           0 all       
#> # ℹ 17 more rows
#> # ℹ 1 more variable: dose_id <int>
summary(combo2_trial, "data_prediction")
#> # A tibble: 27 × 17
#>    group_id drug_A drug_B num_patients num_toxicities cohort_time stratum_id
#>    <fct>     <dbl>  <dbl>        <dbl>          <dbl>       <dbl> <fct>     
#>  1 trial_A     3      0              3              0           0 all       
#>  2 trial_A     4.5    0              3              0           0 all       
#>  3 trial_A     6      0              6              0           0 all       
#>  4 trial_A     8      0              3              2           0 all       
#>  5 trial_B     0     33.3            3              0           0 all       
#>  6 trial_B     0     50              3              0           0 all       
#>  7 trial_B     0    100              4              0           0 all       
#>  8 trial_B     0    200              9              0           0 all       
#>  9 trial_B     0    400             15              0           0 all       
#> 10 trial_B     0    800             20              2           0 all       
#> # ℹ 17 more rows
#> # ℹ 10 more variables: dose_id <int>, mean <dbl>, sd <dbl>, `2.5%` <dbl>,
#> #   `50%` <dbl>, `97.5%` <dbl>, prob_underdose <dbl>, prob_target <dbl>,
#> #   prob_overdose <dbl>, ewoc_ok <lgl>
summary(combo2_trial, "dose_prediction")
#> # A tibble: 42 × 14
#>    group_id drug_A drug_B dose_id stratum_id     mean       sd    `2.5%`   `50%`
#>    <fct>     <dbl>  <dbl>   <int> <fct>         <dbl>    <dbl>     <dbl>   <dbl>
#>  1 trial_A     3        0       1 all        0.000317 0.000580   6.95e-6 6.01e-5
#>  2 trial_A     4.5      0       2 all        0.00616  0.00688    9.10e-4 3.03e-3
#>  3 trial_A     6        0       3 all        0.0624   0.0316     2.69e-2 6.29e-2
#>  4 trial_A     8        0       4 all        0.482    0.0967     3.14e-1 4.72e-1
#>  5 IIT         0      400       5 all        0.0915   0.0849     7.11e-3 6.60e-2
#>  6 IIT         0      600       6 all        0.168    0.130      3.31e-2 1.29e-1
#>  7 IIT         0      800       7 all        0.258    0.157      8.15e-2 2.39e-1
#>  8 IIT         3        0       8 all        0.000456 0.000550   8.57e-6 2.21e-4
#>  9 IIT         3      400       9 all        0.102    0.0682     1.65e-2 8.36e-2
#> 10 IIT         3      600      10 all        0.213    0.0769     9.70e-2 2.14e-1
#> # ℹ 32 more rows
#> # ℹ 5 more variables: `97.5%` <dbl>, prob_underdose <dbl>, prob_target <dbl>,
#> #   prob_overdose <dbl>, ewoc_ok <lgl>
…
