Summarise trial — summary.blrm_trial • OncoBayes2
…
# find any ewoc metrics which are within 95% MCMC error of the threshold
# these are counted as "imprecise" when printing blrm_trial objects
subset(ec, abs(prob_overdose_stat) < qnorm(0.975))
#> # A tibble: 32 × 10
#>    group_id drug_A drug_B dose_id stratum_id prob_overdose_est
#>    <fct>     <dbl>  <dbl>   <int> <fct>                  <dbl>
#>  1 trial_A     6        0       3 all                    0.272
#>  2 trial_A     8        0       4 all                    0.381
#>  3 IIT         3        0       8 all                    0.133
#>  4 IIT         3      400       9 all                    0.201
#>  5 IIT         3      600      10 all                    0.248
#>  6 IIT         3      800      11 all                    0.311
#>  7 IIT         4.5      0      12 all                    0.173
#>  8 IIT         4.5    400      13 all                    0.256
#>  9 IIT         4.5    600      14 all                    0.310
#> 10 IIT         4.5    800      15 all                    0.366
#> # ℹ 22 more rows
#> # ℹ 4 more variables: prob_overdose_stat <dbl>, prob_overdose_mcse <dbl>,
#> #   prob_overdose_ess <dbl>, prob_overdose_rhat <dbl>
…
